Data 607 - Assignment 10
…
nrc_joy <- get_sentiments("nrc") %>% 
  filter(sentiment == "joy")

tidy_books %>%
  filter(book == "Emma") %>%
  inner_join(nrc_joy) %>%
  count(word, sort = TRUE)

## Joining, by = "word"

## # A tibble: 303 x 2
##    word        n
##    <chr>   <int>
##  1 good      359
##  2 young     192
##  3 friend    166
##  4 hope      143
##  5 happy     125
##  6 love      117
##  7 deal       92
##  8 found      92
##  9 present    89
## 10 kind       82
## #  with 293 more rows
…
bing_word_counts <- tidy_books %>%
  inner_join(get_sentiments("bing")) %>%
  count(word, sentiment, sort = TRUE) %>%
  ungroup()

## Joining, by = "word"

bing_word_counts

## # A tibble: 2,585 x 3
##    word     sentiment     n
##    <chr>    <chr>     <int>
##  1 miss     negative   1855
##  2 well     positive   1523
##  3 good     positive   1380
##  4 great    positive    981
##  5 like     positive    725
##  6 better   positive    639
##  7 enough   positive    613
##  8 happy    positive    534
##  9 love     positive    495
## 10 pleasure positive    462
## #  with 2,575 more rows
…
custom_stop_words <- bind_rows(tibble(word = c("miss"), 
                                          lexicon = c("custom")), 
                               stop_words)

custom_stop_words

## # A tibble: 1,150 x 2
##    word        lexicon
##    <chr>       <chr>  
##  1 miss        custom 
##  2 a           SMART  
##  3 a's         SMART  
##  4 able        SMART  
##  5 about       SMART  
##  6 above       SMART  
##  7 according   SMART  
##  8 accordingly SMART  
##  9 across      SMART  
## 10 actually    SMART  
## #  with 1,140 more rows
…
